UCC account number missing from bill,Account Name,OOS category,UCC Dealer Number,Dealer Name,Bill Code Desc,Bill Code,Charge
97930966,DAVILA  RICARDO,Active,900001,Alarmnet,N/A,688,N/A,N/A
97930966,DAVILA  RICARDO,Active,900001,Alarmnet,N/A,868,N/A,N/A
97930974,MEDINA AMANDA,Active,900001,Alarmnet,N/A,688,N/A,N/A
97930974,MEDINA AMANDA,Active,786,Xtreme Security 0786,N/A,688,N/A,N/A
97930974,MEDINA AMANDA,Active,900033,2G Accounts,N/A,688,N/A,N/A
97930966,DAVILA  RICARDO,Active,786,Xtreme Security 0786,N/A,688,N/A,N/A
97930966,DAVILA  RICARDO,Active,786,Xtreme Security 0786,N/A,868,N/A,N/A
814155,East Windsor Village Landlord Rm 3,Active,900001,Alarmnet,N/A,624,N/A,N/A
830868,Mungula  Josue,Active,900001,Alarmnet,N/A,688,N/A,N/A
830868,Mungula  Josue,Active,900001,Alarmnet,N/A,868,N/A,N/A
796848,Momin  Nizar,Active,900001,Alarmnet,N/A,688,N/A,N/A
796848,Momin  Nizar,Active,900001,Alarmnet,N/A,868,N/A,N/A
814155,East Windsor Village Landlord Rm 3,Active,1077,International Sys of America,N/A,624,N/A,N/A
814155,East Windsor Village Landlord Rm 3,Active,107712,Kimco,N/A,624,N/A,N/A
830868,Mungula  Josue,Active,9,Connect One 0009,N/A,688,N/A,N/A
830868,Mungula  Josue,Active,9,Connect One 0009,N/A,868,N/A,N/A
403641,Artisan At Judson-Maintenance Shop,Active,350,Maxcom Securities, Inc. 0350,N/A,688,N/A,N/A
3609705,Elkins  Tammy - BARN - BLDG 2,Active,1173,Smithville Security,N/A,688,N/A,N/A
3609705,Elkins  Tammy - BARN - BLDG 2,Active,900001,Alarmnet,N/A,688,N/A,N/A
796848,Momin  Nizar,Active,161,Exin Security Systems 0161,N/A,688,N/A,N/A
796848,Momin  Nizar,Active,161,Exin Security Systems 0161,N/A,868,N/A,N/A
816893,Gramajo  Leandro,Active,900001,Alarmnet,N/A,652,N/A,N/A
816893,Gramajo  Leandro,Active,900001,Alarmnet,N/A,868,N/A,N/A
472682,Central Ohio Youth For Christ ,Active,900001,Alarmnet,N/A,652,N/A,N/A
90787318,MERCIER  JUANETTA,Active,900001,Alarmnet,N/A,614,N/A,N/A
90787318,MERCIER  JUANETTA,Active,900001,Alarmnet,N/A,636,N/A,N/A
90787318,MERCIER  JUANETTA,Active,900001,Alarmnet,N/A,664,N/A,N/A
90787318,MERCIER  JUANETTA,Active,900001,Alarmnet,N/A,872,N/A,N/A
90787318,MERCIER  JUANETTA,Active,404,En-touch Alarm Systems, Inc. 0404,N/A,614,N/A,N/A
90787318,MERCIER  JUANETTA,Active,404,En-touch Alarm Systems, Inc. 0404,N/A,636,N/A,N/A
90787318,MERCIER  JUANETTA,Active,404,En-touch Alarm Systems, Inc. 0404,N/A,664,N/A,N/A
90787318,MERCIER  JUANETTA,Active,404,En-touch Alarm Systems, Inc. 0404,N/A,872,N/A,N/A
472682,Central Ohio Youth For Christ ,Active,724,Security Unlimited Professional 0724,N/A,652,N/A,N/A
97239828,Schuchact  Janie / Leland,Active,810,Builder Security Group, Inc. (BSG),N/A,688,N/A,N/A
97239828,Schuchact  Janie / Leland,Active,810,Builder Security Group, Inc. (BSG),N/A,868,N/A,N/A
97239828,Schuchact  Janie / Leland,Active,900001,Alarmnet,N/A,688,N/A,N/A
97239828,Schuchact  Janie / Leland,Active,900001,Alarmnet,N/A,868,N/A,N/A
796073,Strahan  Steve & Cheryl,Active,36,Federal Security 0036,N/A,652,N/A,N/A
796073,Strahan  Steve & Cheryl,Active,900001,Alarmnet,N/A,652,N/A,N/A
819477,Loughridge  Perry,Active,900001,Alarmnet,N/A,688,N/A,N/A
819477,Loughridge  Perry,Active,900001,Alarmnet,N/A,868,N/A,N/A
440429,East Moline Schools Education Center - Fire Alarm,Active,271,Heartland Fire & Security 0271,N/A,688,N/A,N/A
440429,East Moline Schools Education Center - Fire Alarm,Active,900001,Alarmnet,N/A,688,N/A,N/A
33433307,Scott Macon Equipment,Active,212,Security Dynamics 0212,N/A,688,N/A,N/A
33433307,Scott Macon Equipment,Active,212,Security Dynamics 0212,N/A,868,N/A,N/A
478904,Chris Claffey,Active,900001,Alarmnet,N/A,652,N/A,N/A
819477,Loughridge  Perry,Active,370,Security & Fire Enterprises 0370,N/A,688,N/A,N/A
819477,Loughridge  Perry,Active,370,Security & Fire Enterprises 0370,N/A,868,N/A,N/A
816893,Gramajo  Leandro,Active,818,Prewire Of El Paso 0818,N/A,652,N/A,N/A
816893,Gramajo  Leandro,Active,818,Prewire Of El Paso 0818,N/A,868,N/A,N/A
816891,Carefree Model Home,Active,900001,Alarmnet,N/A,652,N/A,N/A
57948046,PXP TEXAS SYNERGIS WAREHOUSE,Active,900001,Alarmnet,N/A,678,N/A,N/A
816891,Carefree Model Home,Active,818,Prewire Of El Paso 0818,N/A,652,N/A,N/A
97239923,Mcmillin Model Home,Active,810,Builder Security Group, Inc. (BSG),N/A,688,N/A,N/A
97930968,HINOJOSA  GRACIELA,Active,786,Xtreme Security 0786,N/A,688,N/A,N/A
57948046,PXP TEXAS SYNERGIS WAREHOUSE,Active,7263,AFP Alarm And Detection-Mcalle 0626:3,N/A,678,N/A,N/A
478904,Chris Claffey,Active,747,Best Security Solution 0747,N/A,652,N/A,N/A
97930968,HINOJOSA  GRACIELA,Active,900001,Alarmnet,N/A,688,N/A,N/A
97239923,Mcmillin Model Home,Active,900001,Alarmnet,N/A,688,N/A,N/A
814649,Rodriguez  Paul,Active,778,EV Electric & Security, Inc 0778,N/A,688,N/A,N/A
812626,The Ivy at River Oaks Maint,Active,900001,Alarmnet,N/A,652,N/A,N/A
608534,Mattix  Donnell,Active,900001,Alarmnet,N/A,652,N/A,N/A
812626,The Ivy at River Oaks Maint,Active,363,Alarmtechs Inc 0363,N/A,652,N/A,N/A
97930970,JAUREGUI  VENANCIO,Active,900001,Alarmnet,N/A,688,N/A,N/A
97930970,JAUREGUI  VENANCIO,Active,900001,Alarmnet,N/A,868,N/A,N/A
475466,Knight  Chris,Active,900001,Alarmnet,N/A,688,N/A,N/A
609159,Ogloff  Kirby,Active,900001,Alarmnet,N/A,688,N/A,N/A
609159,Ogloff  Kirby,Active,900001,Alarmnet,N/A,868,N/A,N/A
475466,Knight  Chris,Active,838,Patriot Security, Inc. 0838 (Texas),N/A,688,N/A,N/A
608534,Mattix  Donnell,Active,1147,Xcess Security Services,N/A,652,N/A,N/A
97930970,JAUREGUI  VENANCIO,Active,786,Xtreme Security 0786,N/A,688,N/A,N/A
97930970,JAUREGUI  VENANCIO,Active,786,Xtreme Security 0786,N/A,868,N/A,N/A
HA205180,Vo  Cuong,Active,900001,Alarmnet,N/A,652,N/A,N/A
408267,Brown  Dr. Carol,Active,212,Security Dynamics 0212,N/A,688,N/A,N/A
408267,Brown  Dr. Carol,Active,900001,Alarmnet,N/A,688,N/A,N/A
609159,Ogloff  Kirby,Active,1020,Alarms Unlimited (Reyburn Sec) ,N/A,688,N/A,N/A
609159,Ogloff  Kirby,Active,1020,Alarms Unlimited (Reyburn Sec) ,N/A,868,N/A,N/A
HA205180,Vo  Cuong,Active,1129,Texas Home Electronics,N/A,652,N/A,N/A
57948045,PXP TEXAS,Active,900001,Alarmnet,N/A,645,N/A,N/A
97930977,VILLAFRANCA JESUS,Active,786,Xtreme Security 0786,N/A,688,N/A,N/A
97930977,VILLAFRANCA JESUS,Active,786,Xtreme Security 0786,N/A,868,N/A,N/A
97930977,VILLAFRANCA JESUS,Active,900001,Alarmnet,N/A,688,N/A,N/A
97930977,VILLAFRANCA JESUS,Active,900001,Alarmnet,N/A,868,N/A,N/A
57948045,PXP TEXAS,Active,7263,AFP Alarm And Detection-Mcalle 0626:3,N/A,645,N/A,N/A
791019,Heitkamp-Swift Architects,Active,900001,Alarmnet,N/A,688,N/A,N/A
791019,Heitkamp-Swift Architects,Active,1249,McCann Global Investigations Inc,N/A,688,N/A,N/A
HA200976,Fortune  Stephen,Active,1129,Texas Home Electronics,N/A,688,N/A,N/A
HA200976,Fortune  Stephen,Active,900001,Alarmnet,N/A,688,N/A,N/A
795686,Mitchell  Roland,Active,1129,Texas Home Electronics,N/A,652,N/A,N/A
795686,Mitchell  Roland,Active,900001,Alarmnet,N/A,652,N/A,N/A
401693,Hall  William,Active,932,Patriot Security, LLC. 0932 (Kentucky),N/A,688,N/A,N/A
401693,Hall  William,Active,900001,Alarmnet,N/A,688,N/A,N/A
792418,Estevez  Juan,Active,900001,Alarmnet,N/A,652,N/A,N/A
792418,Estevez  Juan,Active,1262,Allied Security LLC,N/A,652,N/A,N/A
