Account Number on Bill-Service Added to UCC,Account Name,OOS category,UCC Dealer Number, Dealer Name,Bill Code Desc,Bill Code,Charge
473180,Aceves  Christopher,Active,1226,Spartans Security and Technology,GSM device with Daily supervision. Activated on or after June 1 2015.,AN771,
609083 ,LA COPA,Active,1005,A-1 Fire Equipment,IPGSM-DP Fire Comm: NFPA72 and UL864: Daily Supervision over iGSM,ANACUSDPS1,
799273,Peoples Bank,Active,1301,Custom Electronics,Thermostats Lights Locks - Remote Control & Notifications using VAM,AN751,
799273,Peoples Bank,Active,1301,Custom Electronics,GSM device with Monthly supervision. Activated on or after June 1 2015.,AN772,
799273,Peoples Bank,Active,1301,Custom Electronics,Total Connect Basic (2.0) for Cell Radio. Activated on or after June 1 2015.,AN787,
813989,Falcon Ranch HOA,Active,589,Digital Alarm Systems, Inc. 0589,CDMA device with Monthly supervision,AN858,
818650,WILLIAMS  LISA,Active,404,En-touch Alarm Systems, Inc. 0404,Internet device with Monthly supervision. Activated on or after June 1 2015.,AN779,
819101,Burke  Dan & Roberta,Active,589,Digital Alarm Systems, Inc. 0589,Total Connect Basic (2.0) for Cell Radio. Activated on or after June 1 2015.,AN787,
819101,Burke  Dan & Roberta,Active,589,Digital Alarm Systems, Inc. 0589,CDMA device with Monthly supervision,AN858,
